{
    "naersk": {
        "branch": "master",
        "description": "Build rust crates in Nix. No configuration, no code generation, no IFD. Sandbox friendly.",
        "homepage": "",
        "owner": "nmattia",
        "repo": "naersk",
        "rev": "ee7edec50b49ab6d69b06d62f1de554efccb1ccd",
        "sha256": "06g37l34hzi81lc7hmk91mzapsa1iak7yi3agxgdzfc69qk9wp17",
        "type": "tarball",
        "url": "https://github.com/nmattia/naersk/archive/ee7edec50b49ab6d69b06d62f1de554efccb1ccd.tar.gz",
        "url_template": "https://github.com/<owner>/<repo>/archive/<rev>.tar.gz"
    },
    "niv": {
        "branch": "master",
        "description": "Easy dependency management for Nix projects",
        "homepage": "https://github.com/nmattia/niv",
        "owner": "nmattia",
        "repo": "niv",
        "rev": "65a61b147f307d24bfd0a5cd56ce7d7b7cc61d2e",
        "sha256": "17mirpsx5wyw262fpsd6n6m47jcgw8k2bwcp1iwdnrlzy4dhcgqh",
        "type": "tarball",
        "url": "https://github.com/nmattia/niv/archive/65a61b147f307d24bfd0a5cd56ce7d7b7cc61d2e.tar.gz",
        "url_template": "https://github.com/<owner>/<repo>/archive/<rev>.tar.gz"
    },
    "nixpkgs": {
        "branch": "nixpkgs-unstable",
        "description": "A read-only mirror of NixOS/nixpkgs tracking the released channels. Send issues and PRs to",
        "homepage": "https://github.com/NixOS/nixpkgs",
        "owner": "NixOS",
        "repo": "nixpkgs",
        "rev": "a3a23d9599b0a82e333ad91db2cdc479313ce154",
        "sha256": "05xmgrrnw6j39lh3d48kg064z510i0w5vvrm1s5cdwhdc2fkspjq",
        "type": "tarball",
        "url": "https://github.com/NixOS/nixpkgs/archive/a3a23d9599b0a82e333ad91db2cdc479313ce154.tar.gz",
        "url_template": "https://github.com/<owner>/<repo>/archive/<rev>.tar.gz"
    },
    "nixpkgs-mozilla": {
        "branch": "master",
        "description": "mozilla related nixpkgs (extends nixos/nixpkgs repo)",
        "homepage": null,
        "owner": "mozilla",
        "repo": "nixpkgs-mozilla",
        "rev": "0510159186dd2ef46e5464484fbdf119393afa58",
        "sha256": "1c6r5ldkh71v6acsfhni7f9sxvi7xrqzshcwd8w0hl2rrqyzi58w",
        "type": "tarball",
        "url": "https://github.com/mozilla/nixpkgs-mozilla/archive/0510159186dd2ef46e5464484fbdf119393afa58.tar.gz",
        "url_template": "https://github.com/<owner>/<repo>/archive/<rev>.tar.gz"
    }
}
